{
    "KPlugin": {
        "Description": "Performs an action whenever a button is pressed",
        "Description[ar]": "تنفيذ حَدَث عند ضغط زِرّ",
        "Description[be]": "Выкананне дзеяння пры націсканні кнопкі",
        "Description[bg]": "Извършва действие при натискане на бутон",
        "Description[ca@valencia]": "Porta a terme una acció quan es prem un botó",
        "Description[ca]": "Porta a terme una acció quan es prem un botó",
        "Description[cs]": "Vykoná akci kdykoli je tlačítko stisknuto",
        "Description[de]": "Führt eine Aktion aus, sobald ein Knopf gedrückt wird",
        "Description[en_GB]": "Performs an action whenever a button is pressed",
        "Description[es]": "Realiza una acción cada vez que se pulsa un botón",
        "Description[eu]": "Ekintza bat gauzatzen du botoi bat sakatzen den bakoitzean",
        "Description[fi]": "Käynnistää painiketta painettaessa toiminnon",
        "Description[fr]": "Effectue une action à chaque fois qu'un bouton est pressé",
        "Description[ia]": "Il executa un action quando un button es pressate",
        "Description[it]": "Esegue un'azione se viene premuto un pulsante",
        "Description[ka]": "ქმედება, როცა ღილაკს დააწვებით",
        "Description[ko]": "단추가 눌렸을 때 동작을 실행합니다",
        "Description[lt]": "Kiekvieną kartą paspaudus mygtuką, įvykdo veiksmą",
        "Description[nl]": "Voer een actie uit als er een knop wordt ingedrukt",
        "Description[nn]": "Utfører ei handling når du trykkjer på ein knapp",
        "Description[pl]": "Wykonuje działanie przy każdorazowym naciśnięciu przycisku",
        "Description[pt]": "Efectua uma dada acção quando se carrega num botão",
        "Description[pt_BR]": "Executa uma ação sempre que um botão é pressionado",
        "Description[ru]": "Выполняет действие при нажатии кнопки",
        "Description[sl]": "Izvede dejanje ob kateremkoli pritisku na gumb",
        "Description[sv]": "Utför en åtgärd så fort en knapp trycks ner",
        "Description[ta]": "பட்டன் அழுத்தப்படும்போது ஓர் செயலை செய்யும்",
        "Description[tr]": "Bir düğmeye basıldığında bir işlem gerçekleştirir",
        "Description[uk]": "Виконання дій у відповідь на натискання кнопки",
        "Description[x-test]": "xxPerforms an action whenever a button is pressedxx",
        "Description[zh_CN]": "按键时执行操作",
        "Description[zh_TW]": "按鍵被按下時執行動作",
        "Icon": "system-suspend",
        "Name": "Button events handling",
        "Name[ar]": "التعامل مع أحداث ضغط الأزرار",
        "Name[az]": "Güc düyməsinin fəaliyyəti",
        "Name[be]": "Апрацоўванне кнопкі",
        "Name[bg]": "Обработка на събития с бутони",
        "Name[bs]": "Rukovanje događajima dugmadi",
        "Name[ca@valencia]": "Gestioneu els esdeveniments del botó",
        "Name[ca]": "Gestió dels esdeveniments del botó",
        "Name[cs]": "Řízení událostí tlačítek",
        "Name[da]": "Håndtering af knaphændelser",
        "Name[de]": "Knopf-Ereignisbehandlung",
        "Name[el]": "Διαχείριση συμβάντων κουμπιού",
        "Name[en_GB]": "Button events handling",
        "Name[es]": "Gestión de eventos de botones",
        "Name[et]": "Nupusündmuste kohtlemine",
        "Name[eu]": "Botoi-gertaeren kudeaketa",
        "Name[fi]": "Näppäintapahtumien käsittely",
        "Name[fr]": "Prise en charge des évènements de boutons",
        "Name[gl]": "Xestión dos eventos nos botóns",
        "Name[he]": "התנהגות אירועי לחיצה",
        "Name[hu]": "Gombesemények kezelése",
        "Name[ia]": "Button maneante de eventos",
        "Name[id]": "Penanganan mengenai tombol",
        "Name[it]": "Gestione degli eventi dei pulsanti",
        "Name[ja]": "ボタンイベント設定",
        "Name[ka]": "ღილაკის მოვლენების დამუშავება",
        "Name[ko]": "단추 이벤트 처리",
        "Name[lt]": "Mygtukų įvykių apdorojimas",
        "Name[nb]": "Håndtering av knappehendelser",
        "Name[nds]": "Knoop för't Ümgahn mit Begeefnissen",
        "Name[nl]": "Knop voor afhandelen van evenementen",
        "Name[nn]": "Handtering av knapphendingar",
        "Name[pa]": "ਬਟਨ ਈਵੈਂਟ ਹੈਡਲਿੰਗ",
        "Name[pl]": "Obsługa zdarzeń przycisków",
        "Name[pt]": "Tratamento dos eventos dos botões",
        "Name[pt_BR]": "Tratamento de eventos dos botões",
        "Name[ro]": "Manipularea evenimentelor de la butoane",
        "Name[ru]": "Обработка событий от кнопок",
        "Name[sk]": "Spracovanie udalostí tlačidiel",
        "Name[sl]": "Rokovanje z dogodki gumbov",
        "Name[sr@ijekavian]": "Руковање догађајима дугмади",
        "Name[sr@ijekavianlatin]": "Rukovanje događajima dugmadi",
        "Name[sr@latin]": "Rukovanje događajima dugmadi",
        "Name[sr]": "Руковање догађајима дугмади",
        "Name[sv]": "Händelsehantering för knappar",
        "Name[ta]": "பட்டன் நிகழ்வு கையாண்மை",
        "Name[tg]": "Коркарди рӯйдодҳои тугма",
        "Name[tr]": "Düğme işlevleri",
        "Name[uk]": "Обробка натискань кнопок",
        "Name[x-test]": "xxButton events handlingxx",
        "Name[zh_CN]": "按键事件处理",
        "Name[zh_TW]": "按鍵事件處理"
    },
    "X-KDE-PowerDevil-Action-ConfigPriority": 80,
    "X-KDE-PowerDevil-Action-HasRuntimeRequirement": true,
    "X-KDE-PowerDevil-Action-ID": "HandleButtonEvents",
    "X-KDE-PowerDevil-Action-RegistersDBusInterface": true,
    "X-KDE-PowerDevil-Action-UIComponentLibrary": "powerdevilhandlebuttoneventsaction_config"
}
